%YAML 1.1
%TAG !u! tag:unity3d.com,2011:
--- !u!244 &-4213886878899647951
AudioMixerEffectController:
  m_ObjectHideFlags: 3
  m_CorrespondingSourceObject: {fileID: 0}
  m_PrefabInstance: {fileID: 0}
  m_PrefabAsset: {fileID: 0}
  m_Name: 
  m_EffectID: 4b649275f62cac74bbb3d9f0f3e143ae
  m_EffectName: Attenuation
  m_MixLevel: b4bbd65a71a19c44b88be3619c0af86f
  m_Parameters: []
  m_SendTarget: {fileID: 0}
  m_EnableWetMix: 0
  m_Bypass: 0
--- !u!244 &-2414704985833179666
AudioMixerEffectController:
  m_ObjectHideFlags: 3
  m_CorrespondingSourceObject: {fileID: 0}
  m_PrefabInstance: {fileID: 0}
  m_PrefabAsset: {fileID: 0}
  m_Name: 
  m_EffectID: ac11b772ed1411f44b4706de68391392
  m_EffectName: Send
  m_MixLevel: a7da51cdcef6f08418779a7bafffe559
  m_Parameters: []
  m_SendTarget: {fileID: 0}
  m_EnableWetMix: 0
  m_Bypass: 0
--- !u!241 &24100000
AudioMixerController:
  m_ObjectHideFlags: 0
  m_CorrespondingSourceObject: {fileID: 0}
  m_PrefabInstance: {fileID: 0}
  m_PrefabAsset: {fileID: 0}
  m_Name: MainAudioMixer
  m_OutputGroup: {fileID: 0}
  m_MasterGroup: {fileID: 24300002}
  m_Snapshots:
  - {fileID: 24500006}
  m_StartSnapshot: {fileID: 24500006}
  m_SuspendThreshold: -80
  m_EnableSuspend: 1
  m_UpdateMode: 0
  m_ExposedParameters:
  - guid: 8dff9dea73604914285161ca501649a9
    name: MasterVolume
  m_AudioMixerGroupViews:
  - guids:
    - 843be61932195494294647f056db84dd
    - 391e922c9cf50864cbc41fae87e8a830
    - 86b02d7f8a1d0fc4cbd18d5651ad1a88
    - 79250a09cc1a6534ebca73c89a2b239b
    - 1eceb5b3626823443afce1ce5b2e593c
    - 3b68eb5e01e19864c92c16a45fc4c973
    - f3ab2e962f257624fa2f929d65893265
    - aacb5335be7a69441a5496c1db14f075
    - f62d0901af53f3344a4ca1c3b5a1e6c6
    - 33aec0ee65f9f6d41b2dec800c6b2aa0
    - d406258d65379144c8fb503a32b8128a
    - 43247dce2d8d5f9428b9546eb6acaa4c
    - 0ac73e3e70e69e24f95de790634310d4
    - 10049f7cea6db9047b2cb60ba8d0a1a4
    - 36b5d3e6b2644ee498d800e16ec64fa7
    - a49f21c2ca4985540afe494b3c47fa54
    - 9e138ba5611cf7743a9db5397983429f
    - 01b125207242e984587bfca71c901003
    - 5eaf5b47fca23a14d8413e28205d1381
    - 1190736e7f80dde44b644b4eb84fedf3
    - 2f38cff36ee5afb4ca9101a69e2132fd
    name: View
  m_CurrentViewIndex: 0
  m_TargetSnapshot: {fileID: 24500006}
--- !u!243 &24300002
AudioMixerGroupController:
  m_ObjectHideFlags: 0
  m_CorrespondingSourceObject: {fileID: 0}
  m_PrefabInstance: {fileID: 0}
  m_PrefabAsset: {fileID: 0}
  m_Name: Master
  m_AudioMixer: {fileID: 24100000}
  m_GroupID: 843be61932195494294647f056db84dd
  m_Children:
  - {fileID: 243216665894616700}
  - {fileID: 243464375917585960}
  - {fileID: 243914861002086086}
  - {fileID: 243168019308506752}
  m_Volume: 8dff9dea73604914285161ca501649a9
  m_Pitch: 13e60f784e785e24a8b9ddf671831afc
  m_Send: 00000000000000000000000000000000
  m_Effects:
  - {fileID: 24400004}
  m_UserColorIndex: 1
  m_Mute: 0
  m_Solo: 0
  m_BypassEffects: 0
--- !u!244 &24400004
AudioMixerEffectController:
  m_ObjectHideFlags: 3
  m_CorrespondingSourceObject: {fileID: 0}
  m_PrefabInstance: {fileID: 0}
  m_PrefabAsset: {fileID: 0}
  m_Name: 
  m_EffectID: 0ae13647182e21e439524cb49e27b923
  m_EffectName: Attenuation
  m_MixLevel: 332ce5a9bdd489340ac679900bee9ddc
  m_Parameters: []
  m_SendTarget: {fileID: 0}
  m_EnableWetMix: 0
  m_Bypass: 0
--- !u!245 &24500006
AudioMixerSnapshotController:
  m_ObjectHideFlags: 0
  m_CorrespondingSourceObject: {fileID: 0}
  m_PrefabInstance: {fileID: 0}
  m_PrefabAsset: {fileID: 0}
  m_Name: Snapshot
  m_AudioMixer: {fileID: 24100000}
  m_SnapshotID: 20d67e954cc71334fbeae3151f3209de
  m_FloatValues:
    9a6ab30023d220442b628f5bef04f0b8: 0.64
    48f30350a15734d42b2239f59643eded: 32
    4b207aa0e0a20c9468b7e07ac9fa7ed9: 0.773
    f1f12a0177e93314ab0ec15a9e1f7642: 0.713
    b774b851b0226274aaf76decc48f6423: 1105
    5239c5b15910a644396e5ee71ec6f862: 3.9
    27e79ed1217e7e5458f3432d0496eac0: 0.88699996
    40eb7622f90bed94ba194d66fa12a8f3: 1300
    c8dd1d62abf430f45b391d55a5a1ce9e: -4.1973577
    7682035368bf1f54dabc7d37be0d3d32: -3632
    5ba24263ebe011d409588e2890d0f57a: 0.989
    e4c76ca3bb9176042b2e3f1406416672: 20
    986572b3eb0d87c4787ce3ac219fa093: 15.101714
    00905ff3234b0a1409f52bca3716752f: 2.5
    da429604bbc7a874c80271709220809d: 1
    78b3a434dd28436489cb161cc971e165: 0.707
    a37bbd84833850d45a639aded3faca4e: 0.0508
    3e3f91d462e307648b2c80cbf1e5f72a: 0.856
    6eb82405dcdb978479b2549a346e4c14: 0
    80c295650e19c2d4eb273f6d57735f7e: 250
    ca2ad2f547ab9c649bd6082a8bee53f2: 2
    a9a26df55c599a142875126a0716a7e8: 1
    de0a7006a1c79994eb4bc85012aef212: 2.5
    bd2f501790549b745aec103b950bfa0c: 0.704
    b8d51f1707b7f4f4887b7fe8ccdc5379: 0.171
    776ba3370fe4fc24a91a04e1cab5a7b0: 0.823
    8f3d7b87ebb43684c8e3f61da68f2b1b: 2
    518e67c751c0b164c87633e01876e014: 2056
    132d9ba80a2b14d4591d268f65a630b9: 0.5
    60006989cc061db4f8a5bfd4227b9443: 24.6
    8366d00ad37d26445bd963db2eb43d48: 4
    ad7025dadf1ccca468f10eb654225ffc: -6.5566154
    40a307daec39df54992919f20f830bc0: 0.767
    8dff9dea73604914285161ca501649a9: 0
    cc55dcfa6acebe1468a769b626481ed8: 10
    5f48a77b19141884cb1a5808708aad38: 0.213
    c2b9150c30d48034f82865e25f6ed55c: 8.61
    8a31b93c4abe3cd408d9e5d7d71ccc70: 0.172
    e7a30f3c535a3e54889b370fe7961bc1: 3.2656894
    9596167c8e748704da762be502f6471a: 0.699
    2f8ca7bc29a6b8f4a91e72dfa5461668: -5
    7f0f481dc19aee54494f0cadb95b1a39: 2
    e3f0156d81bc13244a1f79c135215525: 4096
    7e2109ddaea0bfb439c647fc829c6dab: -0.27209944
    7e87b52f9feb3ae4e864bffb4f3e06c8: 0
    70df095f6b61c4641911227183c05cec: -4269
    3a89ce8f257c6a041b7335a1044f926a: -19.928473
    d641b6df5238bf94197fe6bfa3c2d0ab: 10264
  m_TransitionOverrides: {}
--- !u!243 &243100500088437654
AudioMixerGroupController:
  m_ObjectHideFlags: 0
  m_CorrespondingSourceObject: {fileID: 0}
  m_PrefabInstance: {fileID: 0}
  m_PrefabAsset: {fileID: 0}
  m_Name: DamageTick
  m_AudioMixer: {fileID: 24100000}
  m_GroupID: 79250a09cc1a6534ebca73c89a2b239b
  m_Children: []
  m_Volume: ad7025dadf1ccca468f10eb654225ffc
  m_Pitch: 6ab79acbb41367842bcfab023c8ee048
  m_Send: 00000000000000000000000000000000
  m_Effects:
  - {fileID: 244115576782024792}
  - {fileID: 244209050263436716}
  m_UserColorIndex: 8
  m_Mute: 0
  m_Solo: 0
  m_BypassEffects: 0
--- !u!243 &243115921504442520
AudioMixerGroupController:
  m_ObjectHideFlags: 0
  m_CorrespondingSourceObject: {fileID: 0}
  m_PrefabInstance: {fileID: 0}
  m_PrefabAsset: {fileID: 0}
  m_Name: WeaponShoot
  m_AudioMixer: {fileID: 24100000}
  m_GroupID: aacb5335be7a69441a5496c1db14f075
  m_Children: []
  m_Volume: 818def36f0c7382409bb8c30155479e7
  m_Pitch: bd33413d882ca2b439b0548624fa118d
  m_Send: 00000000000000000000000000000000
  m_Effects:
  - {fileID: 244535782689060608}
  m_UserColorIndex: 8
  m_Mute: 0
  m_Solo: 0
  m_BypassEffects: 0
--- !u!243 &243155137751615280
AudioMixerGroupController:
  m_ObjectHideFlags: 0
  m_CorrespondingSourceObject: {fileID: 0}
  m_PrefabInstance: {fileID: 0}
  m_PrefabAsset: {fileID: 0}
  m_Name: HUDVictory
  m_AudioMixer: {fileID: 24100000}
  m_GroupID: 10049f7cea6db9047b2cb60ba8d0a1a4
  m_Children: []
  m_Volume: 2f8ca7bc29a6b8f4a91e72dfa5461668
  m_Pitch: 8d7fc02e8c6c1384690c62396b733df5
  m_Send: 00000000000000000000000000000000
  m_Effects:
  - {fileID: 244169575873192110}
  m_UserColorIndex: 7
  m_Mute: 0
  m_Solo: 0
  m_BypassEffects: 0
--- !u!243 &243168019308506752
AudioMixerGroupController:
  m_ObjectHideFlags: 0
  m_CorrespondingSourceObject: {fileID: 0}
  m_PrefabInstance: {fileID: 0}
  m_PrefabAsset: {fileID: 0}
  m_Name: Enemies
  m_AudioMixer: {fileID: 24100000}
  m_GroupID: 36b5d3e6b2644ee498d800e16ec64fa7
  m_Children:
  - {fileID: 243177779269262668}
  - {fileID: 243469522734499658}
  - {fileID: 243322243522355082}
  - {fileID: 243414201558254368}
  m_Volume: 6d88a2bbfd5ddbc488b24ea361359007
  m_Pitch: 6408f9d7bb1e0954a8bf046aeb7a0278
  m_Send: 00000000000000000000000000000000
  m_Effects:
  - {fileID: 244301528673590216}
  m_UserColorIndex: 4
  m_Mute: 0
  m_Solo: 0
  m_BypassEffects: 0
--- !u!243 &243177779269262668
AudioMixerGroupController:
  m_ObjectHideFlags: 0
  m_CorrespondingSourceObject: {fileID: 0}
  m_PrefabInstance: {fileID: 0}
  m_PrefabAsset: {fileID: 0}
  m_Name: EnemyAttack
  m_AudioMixer: {fileID: 24100000}
  m_GroupID: a49f21c2ca4985540afe494b3c47fa54
  m_Children: []
  m_Volume: fc68d594751f3654eb097eb7c43c4238
  m_Pitch: 1bac63f4982ae964788c02d95828d301
  m_Send: 00000000000000000000000000000000
  m_Effects:
  - {fileID: 244222412860203216}
  m_UserColorIndex: 4
  m_Mute: 0
  m_Solo: 0
  m_BypassEffects: 0
--- !u!243 &243216109797877232
AudioMixerGroupController:
  m_ObjectHideFlags: 0
  m_CorrespondingSourceObject: {fileID: 0}
  m_PrefabInstance: {fileID: 0}
  m_PrefabAsset: {fileID: 0}
  m_Name: Jetpack
  m_AudioMixer: {fileID: 24100000}
  m_GroupID: 3b68eb5e01e19864c92c16a45fc4c973
  m_Children: []
  m_Volume: 8414b66052634c14d8423d8aab3c3c12
  m_Pitch: cc1c3b5ed2c9394469aa4aa033810825
  m_Send: 00000000000000000000000000000000
  m_Effects:
  - {fileID: 244485778783519326}
  m_UserColorIndex: 8
  m_Mute: 0
  m_Solo: 0
  m_BypassEffects: 0
--- !u!243 &243216665894616700
AudioMixerGroupController:
  m_ObjectHideFlags: 0
  m_CorrespondingSourceObject: {fileID: 0}
  m_PrefabInstance: {fileID: 0}
  m_PrefabAsset: {fileID: 0}
  m_Name: Ambient
  m_AudioMixer: {fileID: 24100000}
  m_GroupID: 391e922c9cf50864cbc41fae87e8a830
  m_Children: []
  m_Volume: 3a89ce8f257c6a041b7335a1044f926a
  m_Pitch: f16f1ecaab9c22347a761031729793fb
  m_Send: 00000000000000000000000000000000
  m_Effects:
  - {fileID: 244966537606752594}
  m_UserColorIndex: 6
  m_Mute: 0
  m_Solo: 0
  m_BypassEffects: 0
--- !u!243 &243322243522355082
AudioMixerGroupController:
  m_ObjectHideFlags: 0
  m_CorrespondingSourceObject: {fileID: 0}
  m_PrefabInstance: {fileID: 0}
  m_PrefabAsset: {fileID: 0}
  m_Name: EnemyDetection
  m_AudioMixer: {fileID: 24100000}
  m_GroupID: 01b125207242e984587bfca71c901003
  m_Children: []
  m_Volume: 986572b3eb0d87c4787ce3ac219fa093
  m_Pitch: b1a79fea0e3dc304d97dffafcc18f217
  m_Send: 00000000000000000000000000000000
  m_Effects:
  - {fileID: 244841471223059402}
  m_UserColorIndex: 4
  m_Mute: 0
  m_Solo: 0
  m_BypassEffects: 0
--- !u!243 &243414201558254368
AudioMixerGroupController:
  m_ObjectHideFlags: 0
  m_CorrespondingSourceObject: {fileID: 0}
  m_PrefabInstance: {fileID: 0}
  m_PrefabAsset: {fileID: 0}
  m_Name: EnemyDeath
  m_AudioMixer: {fileID: 24100000}
  m_GroupID: 5eaf5b47fca23a14d8413e28205d1381
  m_Children: []
  m_Volume: b88bfb0e5b7a30a4aa55fdbe4762c8e4
  m_Pitch: 10a5e8943efaef048a161ece65451306
  m_Send: 00000000000000000000000000000000
  m_Effects:
  - {fileID: 244707845392384748}
  m_UserColorIndex: 4
  m_Mute: 0
  m_Solo: 0
  m_BypassEffects: 0
--- !u!243 &243464375917585960
AudioMixerGroupController:
  m_ObjectHideFlags: 0
  m_CorrespondingSourceObject: {fileID: 0}
  m_PrefabInstance: {fileID: 0}
  m_PrefabAsset: {fileID: 0}
  m_Name: Player
  m_AudioMixer: {fileID: 24100000}
  m_GroupID: 86b02d7f8a1d0fc4cbd18d5651ad1a88
  m_Children:
  - {fileID: 243100500088437654}
  - {fileID: 243893235630832048}
  - {fileID: 243216109797877232}
  - {fileID: 243590490008759090}
  - {fileID: 243115921504442520}
  - {fileID: 243718781212260352}
  - {fileID: 243881729280325482}
  - {fileID: 2437915178595678948}
  m_Volume: f70855b91bf341f4696e4dcd1e7f3956
  m_Pitch: f4a0b2d2aeb9cb34c8a6233ceeeed806
  m_Send: 00000000000000000000000000000000
  m_Effects:
  - {fileID: 244473792156284896}
  m_UserColorIndex: 8
  m_Mute: 0
  m_Solo: 0
  m_BypassEffects: 0
--- !u!243 &243469522734499658
AudioMixerGroupController:
  m_ObjectHideFlags: 0
  m_CorrespondingSourceObject: {fileID: 0}
  m_PrefabInstance: {fileID: 0}
  m_PrefabAsset: {fileID: 0}
  m_Name: EnemyMovement
  m_AudioMixer: {fileID: 24100000}
  m_GroupID: 9e138ba5611cf7743a9db5397983429f
  m_Children: []
  m_Volume: e7a30f3c535a3e54889b370fe7961bc1
  m_Pitch: ef16b6980d6b6f04db355395f6c502e1
  m_Send: 00000000000000000000000000000000
  m_Effects:
  - {fileID: 244681396406658486}
  m_UserColorIndex: 4
  m_Mute: 0
  m_Solo: 0
  m_BypassEffects: 0
--- !u!243 &243590490008759090
AudioMixerGroupController:
  m_ObjectHideFlags: 0
  m_CorrespondingSourceObject: {fileID: 0}
  m_PrefabInstance: {fileID: 0}
  m_PrefabAsset: {fileID: 0}
  m_Name: WeaponOverheat
  m_AudioMixer: {fileID: 24100000}
  m_GroupID: f3ab2e962f257624fa2f929d65893265
  m_Children: []
  m_Volume: 81edceddc000acd4a86a5ea0b52dd037
  m_Pitch: 1280ca75bdc243b4484b2d93837b3257
  m_Send: 00000000000000000000000000000000
  m_Effects:
  - {fileID: 244508751510953350}
  m_UserColorIndex: 8
  m_Mute: 0
  m_Solo: 0
  m_BypassEffects: 0
--- !u!243 &243617406347679018
AudioMixerGroupController:
  m_ObjectHideFlags: 0
  m_CorrespondingSourceObject: {fileID: 0}
  m_PrefabInstance: {fileID: 0}
  m_PrefabAsset: {fileID: 0}
  m_Name: Pickup
  m_AudioMixer: {fileID: 24100000}
  m_GroupID: d406258d65379144c8fb503a32b8128a
  m_Children: []
  m_Volume: e4c76ca3bb9176042b2e3f1406416672
  m_Pitch: 963c9c9520b1d334a85dd7ac35990e60
  m_Send: 00000000000000000000000000000000
  m_Effects:
  - {fileID: 244724729921463870}
  - {fileID: -2414704985833179666}
  m_UserColorIndex: 7
  m_Mute: 0
  m_Solo: 0
  m_BypassEffects: 0
--- !u!243 &243718781212260352
AudioMixerGroupController:
  m_ObjectHideFlags: 0
  m_CorrespondingSourceObject: {fileID: 0}
  m_PrefabInstance: {fileID: 0}
  m_PrefabAsset: {fileID: 0}
  m_Name: WeaponChargeBuildup
  m_AudioMixer: {fileID: 24100000}
  m_GroupID: f62d0901af53f3344a4ca1c3b5a1e6c6
  m_Children: []
  m_Volume: 7e2109ddaea0bfb439c647fc829c6dab
  m_Pitch: eb05c0945ad5ce344b7f3d291c2f3e23
  m_Send: 00000000000000000000000000000000
  m_Effects:
  - {fileID: 244429038364440566}
  m_UserColorIndex: 8
  m_Mute: 0
  m_Solo: 0
  m_BypassEffects: 0
--- !u!243 &243723186235802514
AudioMixerGroupController:
  m_ObjectHideFlags: 0
  m_CorrespondingSourceObject: {fileID: 0}
  m_PrefabInstance: {fileID: 0}
  m_PrefabAsset: {fileID: 0}
  m_Name: HUDObjective
  m_AudioMixer: {fileID: 24100000}
  m_GroupID: 0ac73e3e70e69e24f95de790634310d4
  m_Children: []
  m_Volume: d1636a22143382345aa4dd642aa6e738
  m_Pitch: 61bb00d3adc11304a802a91b30b1a987
  m_Send: 00000000000000000000000000000000
  m_Effects:
  - {fileID: 244714469103952522}
  m_UserColorIndex: 7
  m_Mute: 0
  m_Solo: 0
  m_BypassEffects: 0
--- !u!243 &243881729280325482
AudioMixerGroupController:
  m_ObjectHideFlags: 0
  m_CorrespondingSourceObject: {fileID: 0}
  m_PrefabInstance: {fileID: 0}
  m_PrefabAsset: {fileID: 0}
  m_Name: WeaponChargeLoop
  m_AudioMixer: {fileID: 24100000}
  m_GroupID: 1190736e7f80dde44b644b4eb84fedf3
  m_Children: []
  m_Volume: c8dd1d62abf430f45b391d55a5a1ce9e
  m_Pitch: 79de0d7aec0059f4b883d2f1915a131e
  m_Send: 00000000000000000000000000000000
  m_Effects:
  - {fileID: 244390397163483904}
  - {fileID: 244069714958966390}
  - {fileID: 244079380163919874}
  m_UserColorIndex: 8
  m_Mute: 0
  m_Solo: 0
  m_BypassEffects: 0
--- !u!243 &243893235630832048
AudioMixerGroupController:
  m_ObjectHideFlags: 0
  m_CorrespondingSourceObject: {fileID: 0}
  m_PrefabInstance: {fileID: 0}
  m_PrefabAsset: {fileID: 0}
  m_Name: PlayerMovement
  m_AudioMixer: {fileID: 24100000}
  m_GroupID: 1eceb5b3626823443afce1ce5b2e593c
  m_Children: []
  m_Volume: dd988ac10a72bcf41b10e6c8c94c0b04
  m_Pitch: bd50d928c4b6c6342a98488dd88d6dbf
  m_Send: 00000000000000000000000000000000
  m_Effects:
  - {fileID: 244946801739276744}
  m_UserColorIndex: 8
  m_Mute: 0
  m_Solo: 0
  m_BypassEffects: 0
--- !u!243 &243914861002086086
AudioMixerGroupController:
  m_ObjectHideFlags: 0
  m_CorrespondingSourceObject: {fileID: 0}
  m_PrefabInstance: {fileID: 0}
  m_PrefabAsset: {fileID: 0}
  m_Name: General
  m_AudioMixer: {fileID: 24100000}
  m_GroupID: 33aec0ee65f9f6d41b2dec800c6b2aa0
  m_Children:
  - {fileID: 243617406347679018}
  - {fileID: 243932061282238976}
  - {fileID: 243723186235802514}
  - {fileID: 243155137751615280}
  m_Volume: a750b4bbfc370dc4b863feab0da21d38
  m_Pitch: 8a4a9dec68ab6ae4e85ea60d63b749ee
  m_Send: 00000000000000000000000000000000
  m_Effects:
  - {fileID: 244335842271130138}
  m_UserColorIndex: 7
  m_Mute: 0
  m_Solo: 0
  m_BypassEffects: 0
--- !u!243 &243932061282238976
AudioMixerGroupController:
  m_ObjectHideFlags: 0
  m_CorrespondingSourceObject: {fileID: 0}
  m_PrefabInstance: {fileID: 0}
  m_PrefabAsset: {fileID: 0}
  m_Name: Impact
  m_AudioMixer: {fileID: 24100000}
  m_GroupID: 43247dce2d8d5f9428b9546eb6acaa4c
  m_Children: []
  m_Volume: 82c0173dbe13cae458e225fd942b28cf
  m_Pitch: 02c7f78ac451b594385161ce0765ab20
  m_Send: 00000000000000000000000000000000
  m_Effects:
  - {fileID: 244616822059407040}
  m_UserColorIndex: 7
  m_Mute: 0
  m_Solo: 0
  m_BypassEffects: 0
--- !u!244 &244069714958966390
AudioMixerEffectController:
  m_ObjectHideFlags: 3
  m_CorrespondingSourceObject: {fileID: 0}
  m_PrefabInstance: {fileID: 0}
  m_PrefabAsset: {fileID: 0}
  m_Name: 
  m_EffectID: aff822830741d074ba6bf8790d466f2c
  m_EffectName: Flange
  m_MixLevel: e858edc46e7b0a84b88d128cae39b87b
  m_Parameters:
  - m_ParameterName: Drymix
    m_GUID: ad0f5f1d63e50f3488c560dd50c4bef9
  - m_ParameterName: Wetmix
    m_GUID: 132d9ba80a2b14d4591d268f65a630b9
  - m_ParameterName: Depth
    m_GUID: 4c92de80d5829a74590d5e76cb0fe1e5
  - m_ParameterName: Rate
    m_GUID: ca2ad2f547ab9c649bd6082a8bee53f2
  m_SendTarget: {fileID: 0}
  m_EnableWetMix: 0
  m_Bypass: 0
--- !u!244 &244079380163919874
AudioMixerEffectController:
  m_ObjectHideFlags: 3
  m_CorrespondingSourceObject: {fileID: 0}
  m_PrefabInstance: {fileID: 0}
  m_PrefabAsset: {fileID: 0}
  m_Name: 
  m_EffectID: 817d759f7402c5f42bec07e6acfee6ab
  m_EffectName: Highpass Simple
  m_MixLevel: 989ad694e0efe5f42afb9b2fb9f5148b
  m_Parameters:
  - m_ParameterName: Cutoff freq
    m_GUID: 40eb7622f90bed94ba194d66fa12a8f3
  m_SendTarget: {fileID: 0}
  m_EnableWetMix: 0
  m_Bypass: 0
--- !u!244 &244115576782024792
AudioMixerEffectController:
  m_ObjectHideFlags: 3
  m_CorrespondingSourceObject: {fileID: 0}
  m_PrefabInstance: {fileID: 0}
  m_PrefabAsset: {fileID: 0}
  m_Name: 
  m_EffectID: ff89233a3180b75498275b0bca450017
  m_EffectName: Attenuation
  m_MixLevel: 019509ce3d377f940aa12aaceaeaf04f
  m_Parameters: []
  m_SendTarget: {fileID: 0}
  m_EnableWetMix: 0
  m_Bypass: 0
--- !u!244 &244169575873192110
AudioMixerEffectController:
  m_ObjectHideFlags: 3
  m_CorrespondingSourceObject: {fileID: 0}
  m_PrefabInstance: {fileID: 0}
  m_PrefabAsset: {fileID: 0}
  m_Name: Attenuation
  m_EffectID: 7c4464746cd631149b493a828a7b5b41
  m_EffectName: Attenuation
  m_MixLevel: 3db3922ff269b4943b4716a88e39243a
  m_Parameters: []
  m_SendTarget: {fileID: 0}
  m_EnableWetMix: 0
  m_Bypass: 0
--- !u!244 &244209050263436716
AudioMixerEffectController:
  m_ObjectHideFlags: 3
  m_CorrespondingSourceObject: {fileID: 0}
  m_PrefabInstance: {fileID: 0}
  m_PrefabAsset: {fileID: 0}
  m_Name: 
  m_EffectID: b5ea32eca2785654ca47f19c3dfcdbed
  m_EffectName: Pitch Shifter
  m_MixLevel: 755ce8884597b3d4ca11856bc43b7eef
  m_Parameters:
  - m_ParameterName: Pitch
    m_GUID: 8f3d7b87ebb43684c8e3f61da68f2b1b
  - m_ParameterName: FFT size
    m_GUID: f52cdf0c51e00dc4e9d33c426ce45b97
  - m_ParameterName: Overlap
    m_GUID: 8a2d2fa93b53e3e468045d98233aca5a
  - m_ParameterName: Max channels
    m_GUID: 989e762571303e94a92d893e068a76ce
  m_SendTarget: {fileID: 0}
  m_EnableWetMix: 0
  m_Bypass: 0
--- !u!244 &244222412860203216
AudioMixerEffectController:
  m_ObjectHideFlags: 3
  m_CorrespondingSourceObject: {fileID: 0}
  m_PrefabInstance: {fileID: 0}
  m_PrefabAsset: {fileID: 0}
  m_Name: 
  m_EffectID: c892f8f120c72364d8054ca8c547cd53
  m_EffectName: Attenuation
  m_MixLevel: fb0fc44a6585e50479b4d1f36368e5f6
  m_Parameters: []
  m_SendTarget: {fileID: 0}
  m_EnableWetMix: 0
  m_Bypass: 0
--- !u!244 &244301528673590216
AudioMixerEffectController:
  m_ObjectHideFlags: 3
  m_CorrespondingSourceObject: {fileID: 0}
  m_PrefabInstance: {fileID: 0}
  m_PrefabAsset: {fileID: 0}
  m_Name: 
  m_EffectID: b51c647b2fd079847817be612fe0994f
  m_EffectName: Attenuation
  m_MixLevel: 847a1d495bcee0e429e3dc3b3c7cf19c
  m_Parameters: []
  m_SendTarget: {fileID: 0}
  m_EnableWetMix: 0
  m_Bypass: 0
--- !u!244 &244335842271130138
AudioMixerEffectController:
  m_ObjectHideFlags: 3
  m_CorrespondingSourceObject: {fileID: 0}
  m_PrefabInstance: {fileID: 0}
  m_PrefabAsset: {fileID: 0}
  m_Name: 
  m_EffectID: 7278bd6be8a92c34b8339442838e1858
  m_EffectName: Attenuation
  m_MixLevel: b8d5e3f693369d94080e2aef2255de82
  m_Parameters: []
  m_SendTarget: {fileID: 0}
  m_EnableWetMix: 0
  m_Bypass: 0
--- !u!244 &244390397163483904
AudioMixerEffectController:
  m_ObjectHideFlags: 3
  m_CorrespondingSourceObject: {fileID: 0}
  m_PrefabInstance: {fileID: 0}
  m_PrefabAsset: {fileID: 0}
  m_Name: Attenuation
  m_EffectID: 64631b2b3bdfd5c4ea00d812c38061e3
  m_EffectName: Attenuation
  m_MixLevel: 2de48673a0866fc4e8a524ce747b1159
  m_Parameters: []
  m_SendTarget: {fileID: 0}
  m_EnableWetMix: 0
  m_Bypass: 0
--- !u!244 &244426912486077438
AudioMixerEffectController:
  m_ObjectHideFlags: 3
  m_CorrespondingSourceObject: {fileID: 0}
  m_PrefabInstance: {fileID: 0}
  m_PrefabAsset: {fileID: 0}
  m_Name: 
  m_EffectID: 7ad2c28bb0e2b0e4ca5e4040b65febee
  m_EffectName: Send
  m_MixLevel: b4a941abe76271d4bbc57fcad64b2ee0
  m_Parameters: []
  m_SendTarget: {fileID: 0}
  m_EnableWetMix: 0
  m_Bypass: 0
--- !u!244 &244429038364440566
AudioMixerEffectController:
  m_ObjectHideFlags: 3
  m_CorrespondingSourceObject: {fileID: 0}
  m_PrefabInstance: {fileID: 0}
  m_PrefabAsset: {fileID: 0}
  m_Name: 
  m_EffectID: 4c553e2d35c87cc4b98ecf6bc70c6226
  m_EffectName: Attenuation
  m_MixLevel: 017b4edaedb61924f972bfc38dff6459
  m_Parameters: []
  m_SendTarget: {fileID: 0}
  m_EnableWetMix: 0
  m_Bypass: 0
--- !u!244 &244473792156284896
AudioMixerEffectController:
  m_ObjectHideFlags: 3
  m_CorrespondingSourceObject: {fileID: 0}
  m_PrefabInstance: {fileID: 0}
  m_PrefabAsset: {fileID: 0}
  m_Name: 
  m_EffectID: 8c04dc449dab5fd419455e50f03d2a7a
  m_EffectName: Attenuation
  m_MixLevel: d827ec66092f55445a906bff1a6d125c
  m_Parameters: []
  m_SendTarget: {fileID: 0}
  m_EnableWetMix: 0
  m_Bypass: 0
--- !u!244 &244485778783519326
AudioMixerEffectController:
  m_ObjectHideFlags: 3
  m_CorrespondingSourceObject: {fileID: 0}
  m_PrefabInstance: {fileID: 0}
  m_PrefabAsset: {fileID: 0}
  m_Name: 
  m_EffectID: 7be730abee70cbe4988d7b46eab64d9b
  m_EffectName: Attenuation
  m_MixLevel: bf6abe38c1fcaf844a3db0fbf3e0c3ac
  m_Parameters: []
  m_SendTarget: {fileID: 0}
  m_EnableWetMix: 0
  m_Bypass: 0
--- !u!244 &244508751510953350
AudioMixerEffectController:
  m_ObjectHideFlags: 3
  m_CorrespondingSourceObject: {fileID: 0}
  m_PrefabInstance: {fileID: 0}
  m_PrefabAsset: {fileID: 0}
  m_Name: 
  m_EffectID: c6505d5cc3844414ba37054ddb532102
  m_EffectName: Attenuation
  m_MixLevel: 80f0db5f1ac43034f852cee6fe2e88f2
  m_Parameters: []
  m_SendTarget: {fileID: 0}
  m_EnableWetMix: 0
  m_Bypass: 0
--- !u!244 &244535782689060608
AudioMixerEffectController:
  m_ObjectHideFlags: 3
  m_CorrespondingSourceObject: {fileID: 0}
  m_PrefabInstance: {fileID: 0}
  m_PrefabAsset: {fileID: 0}
  m_Name: 
  m_EffectID: 134a85a817d99504ab3af276db440113
  m_EffectName: Attenuation
  m_MixLevel: 4a1ac5709d23b8f4fa0512eaece7a107
  m_Parameters: []
  m_SendTarget: {fileID: 0}
  m_EnableWetMix: 0
  m_Bypass: 0
--- !u!244 &244565390880070122
AudioMixerEffectController:
  m_ObjectHideFlags: 3
  m_CorrespondingSourceObject: {fileID: 0}
  m_PrefabInstance: {fileID: 0}
  m_PrefabAsset: {fileID: 0}
  m_Name: 
  m_EffectID: 2f86bbbfd05ca614e911391920f4c680
  m_EffectName: Receive
  m_MixLevel: c730e7816c269624b8c341a840ae7368
  m_Parameters: []
  m_SendTarget: {fileID: 0}
  m_EnableWetMix: 0
  m_Bypass: 0
--- !u!244 &244616822059407040
AudioMixerEffectController:
  m_ObjectHideFlags: 3
  m_CorrespondingSourceObject: {fileID: 0}
  m_PrefabInstance: {fileID: 0}
  m_PrefabAsset: {fileID: 0}
  m_Name: 
  m_EffectID: 7c7d9a40a914d9a4eb8770f25c76bfae
  m_EffectName: Attenuation
  m_MixLevel: 037691b07ab452946bf19091dc2d6548
  m_Parameters: []
  m_SendTarget: {fileID: 0}
  m_EnableWetMix: 0
  m_Bypass: 0
--- !u!244 &244681396406658486
AudioMixerEffectController:
  m_ObjectHideFlags: 3
  m_CorrespondingSourceObject: {fileID: 0}
  m_PrefabInstance: {fileID: 0}
  m_PrefabAsset: {fileID: 0}
  m_Name: 
  m_EffectID: 79766d8ddbc7dc340a6ebb45e64c6f0d
  m_EffectName: Attenuation
  m_MixLevel: a0c35c636a863b34eaf3b48deca3a968
  m_Parameters: []
  m_SendTarget: {fileID: 0}
  m_EnableWetMix: 0
  m_Bypass: 0
--- !u!244 &244707845392384748
AudioMixerEffectController:
  m_ObjectHideFlags: 3
  m_CorrespondingSourceObject: {fileID: 0}
  m_PrefabInstance: {fileID: 0}
  m_PrefabAsset: {fileID: 0}
  m_Name: Attenuation
  m_EffectID: 4ed4238d24d0b094c8fefd3ff86a4cec
  m_EffectName: Attenuation
  m_MixLevel: 4e3e86198e9e6ba4fa68e931bc03c09a
  m_Parameters: []
  m_SendTarget: {fileID: 0}
  m_EnableWetMix: 0
  m_Bypass: 0
--- !u!244 &244714469103952522
AudioMixerEffectController:
  m_ObjectHideFlags: 3
  m_CorrespondingSourceObject: {fileID: 0}
  m_PrefabInstance: {fileID: 0}
  m_PrefabAsset: {fileID: 0}
  m_Name: 
  m_EffectID: 9be3c441ba3f9834c97484898a92eb10
  m_EffectName: Attenuation
  m_MixLevel: 7ef4fd5f407a6394fb72c347119ad1da
  m_Parameters: []
  m_SendTarget: {fileID: 0}
  m_EnableWetMix: 0
  m_Bypass: 0
--- !u!244 &244724729921463870
AudioMixerEffectController:
  m_ObjectHideFlags: 3
  m_CorrespondingSourceObject: {fileID: 0}
  m_PrefabInstance: {fileID: 0}
  m_PrefabAsset: {fileID: 0}
  m_Name: 
  m_EffectID: 3e9f533a86a1b134398d84aab37ecab0
  m_EffectName: Attenuation
  m_MixLevel: 3900850febc775b4f9b8c86f66ecd6ae
  m_Parameters: []
  m_SendTarget: {fileID: 0}
  m_EnableWetMix: 0
  m_Bypass: 0
--- !u!244 &244841471223059402
AudioMixerEffectController:
  m_ObjectHideFlags: 3
  m_CorrespondingSourceObject: {fileID: 0}
  m_PrefabInstance: {fileID: 0}
  m_PrefabAsset: {fileID: 0}
  m_Name: 
  m_EffectID: 9b2a6193b5ed41e4d8dd2da81e3ca0b4
  m_EffectName: Attenuation
  m_MixLevel: 7479bb059ff8a27479a62e10e1f6a309
  m_Parameters: []
  m_SendTarget: {fileID: 0}
  m_EnableWetMix: 0
  m_Bypass: 0
--- !u!244 &244946801739276744
AudioMixerEffectController:
  m_ObjectHideFlags: 3
  m_CorrespondingSourceObject: {fileID: 0}
  m_PrefabInstance: {fileID: 0}
  m_PrefabAsset: {fileID: 0}
  m_Name: 
  m_EffectID: cc4d60ce9319ea34da089cdfb10c8586
  m_EffectName: Attenuation
  m_MixLevel: 10f64dd13b4c3394497413d2a7d8314e
  m_Parameters: []
  m_SendTarget: {fileID: 0}
  m_EnableWetMix: 0
  m_Bypass: 0
--- !u!244 &244966537606752594
AudioMixerEffectController:
  m_ObjectHideFlags: 3
  m_CorrespondingSourceObject: {fileID: 0}
  m_PrefabInstance: {fileID: 0}
  m_PrefabAsset: {fileID: 0}
  m_Name: 
  m_EffectID: 2389d28c96647ef46b48351967cabd5b
  m_EffectName: Attenuation
  m_MixLevel: 31bbb2ab2a071b24698629ed4238dc77
  m_Parameters: []
  m_SendTarget: {fileID: 0}
  m_EnableWetMix: 0
  m_Bypass: 0
--- !u!243 &2437915178595678948
AudioMixerGroupController:
  m_ObjectHideFlags: 0
  m_CorrespondingSourceObject: {fileID: 0}
  m_PrefabInstance: {fileID: 0}
  m_PrefabAsset: {fileID: 0}
  m_Name: Misc
  m_AudioMixer: {fileID: 24100000}
  m_GroupID: 2f38cff36ee5afb4ca9101a69e2132fd
  m_Children: []
  m_Volume: c443e08bd56b9a54487380fe3c9a88ec
  m_Pitch: 0c89aa46ba5f61643bab60d7b65955ba
  m_Send: 00000000000000000000000000000000
  m_Effects:
  - {fileID: -4213886878899647951}
  m_UserColorIndex: 8
  m_Mute: 0
  m_Solo: 0
  m_BypassEffects: 0
