%YAML 1.1
%TAG !u! tag:unity3d.com,2011:
--- !u!1045 &1
EditorBuildSettings:
  m_ObjectHideFlags: 0
  serializedVersion: 2
  m_Scenes:
  - enabled: 1
    path: Assets/Scenes/Main.unity
    guid: 9fc0d4010bbf28b4594072e72b8655ab
  - enabled: 1
    path: Assets/Scenes/Victory.unity
    guid: 682bd7b0c6cf98346b8e9f96d6b43c4b
  - enabled: 1
    path: Assets/Scenes/GameOver.unity
    guid: 7fa14ab92bf1a67499673a6ca007600a
  m_configObjects: {}
